CA Lab/CA Lab.sim/sim_1/behav/xsim/RISC_V_Pipelined_tb.vcd
$date
   Wed Apr 16 23:25:05 2025
$end
$version
  2020.1
$end
$timescale
  1ps
$end
$scope module RISC_V_Pipelined_tb $end
$var reg 1 ! clk $end
$var reg 1 " reset $end
$scope module uut $end
$var wire 1 # clk $end
$var wire 1 $ reset $end
$var wire 64 % PC_in [63:0] $end
$var wire 64 & PC_out [63:0] $end
$var wire 64 ' ReadData [63:0] $end
$var wire 64 ( ReadData1 [63:0] $end
$var wire 64 ) ReadData2 [63:0] $end
$var wire 64 * WriteData [63:0] $end
$var wire 64 + ImmData [63:0] $end
$var wire 64 , ALU_Result [63:0] $end
$var wire 64 - shifted_data [63:0] $end
$var wire 64 . Data_Out [63:0] $end
$var wire 64 / Out1 [63:0] $end
$var wire 64 0 Adder_out [63:0] $end
$var wire 32 1 Instruction [31:0] $end
$var wire 7 2 opcode [6:0] $end
$var wire 7 3 func7 [6:0] $end
$var wire 3 4 func3 [2:0] $end
$var wire 5 5 RS1 [4:0] $end
$var wire 5 6 RS2 [4:0] $end
$var wire 5 7 RD [4:0] $end
$var wire 4 8 Operation [3:0] $end
$var wire 4 9 Funct [3:0] $end
$var wire 2 : ALUOp [1:0] $end
$var wire 1 ; RegWrite $end
$var wire 1 < MemRead $end
$var wire 1 = MemWrite $end
$var wire 1 > MemtoReg $end
$var wire 1 ? ALUSrc $end
$var wire 1 @ Zero $end
$var wire 1 A Branch $end
$var wire 1 B BranchSelect $end
$var wire 64 C IF_ID_PC_out [63:0] $end
$var wire 32 D IF_ID_Instruction [31:0] $end
$var wire 1 E ID_EX_RegWrite $end
$var wire 1 F ID_EX_MemRead $end
$var wire 1 G ID_EX_MemtoReg $end
$var wire 1 H ID_EX_MemWrite $end
$var wire 1 I ID_EX_Branch $end
$var wire 1 J ID_EX_ALUSrc $end
$var wire 2 K ID_EX_ALUOp [1:0] $end
$var wire 64 L ID_EX_PC_out [63:0] $end
$var wire 64 M ID_EX_ReadData1 [63:0] $end
$var wire 64 N ID_EX_ReadData2 [63:0] $end
$var wire 64 O ID_EX_ImmData [63:0] $end
$var wire 4 P ID_EX_Funct [3:0] $end
$var wire 5 Q ID_EX_RS1 [4:0] $end
$var wire 5 R ID_EX_RS2 [4:0] $end
$var wire 5 S ID_EX_RD [4:0] $end
$var wire 1 T EX_MEM_RegWrite $end
$var wire 1 U EX_MEM_MemRead $end
$var wire 1 V EX_MEM_MemtoReg $end
$var wire 1 W EX_MEM_MemWrite $end
$var wire 1 X EX_MEM_Branch $end
$var wire 1 Y EX_MEM_Zero $end
$var wire 5 Z EX_MEM_RD [4:0] $end
$var wire 64 [ EX_MEM_Adder_out [63:0] $end
$var wire 64 \ EX_MEM_ALU_Result [63:0] $end
$var wire 64 ] EX_MEM_ReadData2 [63:0] $end
$var wire 1 ^ MEM_WB_RegWrite $end
$var wire 1 _ MEM_WB_MemtoReg $end
$var wire 5 ` MEM_WB_RD [4:0] $end
$var wire 64 a MEM_WB_ReadData [63:0] $end
$var wire 64 b MEM_WB_ALU_Result [63:0] $end
$var wire 64 c w0 [63:0] $end
$var wire 64 d w1 [63:0] $end
$var wire 64 e w2 [63:0] $end
$var wire 64 f w3 [63:0] $end
$var wire 64 g w4 [63:0] $end
$var wire 64 h w5 [63:0] $end
$var wire 64 i w6 [63:0] $end
$var wire 64 j reg1 [63:0] $end
$var wire 64 k reg2 [63:0] $end
$var wire 64 l reg3 [63:0] $end
$var wire 1 m ALUsrc $end
$scope module FOURADDER $end
$var wire 64 n a [63:0] $end
$var wire 64 & b [63:0] $end
$var reg 64 o out [63:0] $end
$upscope $end
$scope module branch_mux $end
$var wire 64 / a [63:0] $end
$var wire 64 [ b [63:0] $end
$var wire 1 p sel $end
$var wire 64 % data_out [63:0] $end
$upscope $end
$scope module Program_count $end
$var wire 1 # clk $end
$var wire 1 $ reset $end
$var wire 64 % PC_In [63:0] $end
$var reg 64 q PC_Out [63:0] $end
$upscope $end
$scope module Instr_mem $end
$var wire 64 & Inst_Address [63:0] $end
$var reg 32 r Instruction [31:0] $end
$upscope $end
$scope module IF_ID_reg $end
$var wire 1 # clk $end
$var wire 1 $ reset $end
$var wire 32 1 Instr [31:0] $end
$var wire 64 & PC_OUT_IN [63:0] $end
$var reg 32 s IF_ID_instruction_out [31:0] $end
$var reg 64 t IF_ID_pc_out [63:0] $end
$upscope $end
$scope module Instr_pars $end
$var wire 32 D instruction [31:0] $end
$var reg 7 u opcode [6:0] $end
$var reg 5 v rd [4:0] $end
$var reg 3 w funct3 [2:0] $end
$var reg 5 x rs1 [4:0] $end
$var reg 5 y rs2 [4:0] $end
$var reg 7 z funct7 [6:0] $end
$upscope $end
$scope module Imm_gen $end
$var wire 32 D instruction [31:0] $end
$var reg 64 { imm_data [63:0] $end
$var wire 2 | code [1:0] $end
$upscope $end
$scope module conrol_unit $end
$var wire 7 2 Opcode [6:0] $end
$var reg 1 } Branch $end
$var reg 1 ~ MemRead $end
$var reg 1 !! MemtoReg $end
$var reg 2 "! ALUOp [1:0] $end
$var reg 1 #! MemWrite $end
$var reg 1 $! ALUSrc $end
$var reg 1 %! RegWrite $end
$upscope $end
$scope module Registers $end
$var wire 64 * WriteData [63:0] $end
$var wire 5 5 RS1 [4:0] $end
$var wire 5 6 RS2 [4:0] $end
$var wire 5 ` RD [4:0] $end
$var wire 1 ^ RegWrite $end
$var wire 1 # Clk $end
$var wire 1 $ Reset $end
$var reg 64 &! ReadData1 [63:0] $end
$var reg 64 '! ReadData2 [63:0] $end
$var integer 32 (! i $end
$upscope $end
$scope module Branch_decision $end
$var wire 3 4 funct3 [2:0] $end
$var wire 64 ( ReadData1 [63:0] $end
$var wire 64 ) ReadData2 [63:0] $end
$var reg 1 )! branchSel $end
$upscope $end
$scope module ID_EX_reg $end
$var wire 1 # clk $end
$var wire 1 $ reset $end
$var wire 1 ; RegWrite $end
$var wire 1 > MemToReg $end
$var wire 1 A Branch $end
$var wire 1 = MemWrite $end
$var wire 1 < MemRead $end
$var wire 1 m ALUsrc $end
$var wire 2 : ALUop [1:0] $end
$var wire 64 C IF_ID_PC_out [63:0] $end
$var wire 64 ( ReadData1 [63:0] $end
$var wire 64 ) ReadData2 [63:0] $end
$var wire 64 + ImmData [63:0] $end
$var wire 4 9 Funct [3:0] $end
$var wire 5 5 RS1 [4:0] $end
$var wire 5 6 RS2 [4:0] $end
$var wire 5 7 RD [4:0] $end
$var reg 1 *! ID_EX_RegWrite $end
$var reg 1 +! ID_EX_MemToReg $end
$var reg 1 ,! ID_EX_Branch $end
$var reg 1 -! ID_EX_MemWrite $end
$var reg 1 .! ID_EX_MemRead $end
$var reg 1 /! ID_EX_ALUSrc $end
$var reg 2 0! ID_EX_ALUOp [1:0] $end
$var reg 64 1! ID_EX_PC_out [63:0] $end
$var reg 64 2! ID_EX_ReadData1 [63:0] $end
$var reg 64 3! ID_EX_ReadData2 [63:0] $end
$var reg 64 4! ID_EX_ImmData [63:0] $end
$var reg 4 5! ID_EX_Funct [3:0] $end
$var reg 5 6! ID_EX_RS1 [4:0] $end
$var reg 5 7! ID_EX_RS2 [4:0] $end
$var reg 5 8! ID_EX_RD [4:0] $end
$upscope $end
$scope module BRANCHADDER $end
$var wire 64 L a [63:0] $end
$var wire 64 - b [63:0] $end
$var reg 64 9! out [63:0] $end
$upscope $end
$scope module MuxALUSrc $end
$var wire 64 N a [63:0] $end
$var wire 64 O b [63:0] $end
$var wire 1 J sel $end
$var wire 64 . data_out [63:0] $end
$upscope $end
$scope module ALUC $end
$var wire 2 K ALUOp [1:0] $end
$var wire 4 P Funct [3:0] $end
$var reg 4 :! Operation [3:0] $end
$upscope $end
$scope module ALU $end
$var wire 64 M a [63:0] $end
$var wire 64 . b [63:0] $end
$var wire 4 8 ALUOp [3:0] $end
$var reg 64 ;! Result [63:0] $end
$var wire 1 @ Zero $end
$upscope $end
$scope module EX_MEM_reg $end
$var wire 1 # clk $end
$var wire 1 $ reset $end
$var wire 1 E ID_EX_RegWrite $end
$var wire 1 F ID_EX_MemRead $end
$var wire 1 G ID_EX_MemToReg $end
$var wire 1 H ID_EX_MemWrite $end
$var wire 1 I ID_EX_Branch $end
$var wire 1 B Zero $end
$var wire 5 S ID_EX_RD [4:0] $end
$var wire 64 0 Adder_out [63:0] $end
$var wire 64 , ALU_Result [63:0] $end
$var wire 64 N ID_EX_ReadData2 [63:0] $end
$var reg 1 <! EX_MEM_RegWrite $end
$var reg 1 =! EX_MEM_MemRead $end
$var reg 1 >! EX_MEM_MemToReg $end
$var reg 1 ?! EX_MEM_MemWrite $end
$var reg 1 @! EX_MEM_Branch $end
$var reg 1 A! EX_MEM_Zero $end
$var reg 5 B! EX_MEM_RD [4:0] $end
$var reg 64 C! EX_MEM_Adder_out [63:0] $end
$var reg 64 D! EX_MEM_ALU_Result [63:0] $end
$var reg 64 E! EX_MEM_ReadData2 [63:0] $end
$upscope $end
$scope module DataMem $end
$var wire 64 \ Memory_Address [63:0] $end
$var wire 64 ] Write_Data [63:0] $end
$var wire 1 # clk $end
$var wire 1 W MemWrite $end
$var wire 1 U MemRead $end
$var reg 64 F! ReadData [63:0] $end
$var wire 64 c w0 [63:0] $end
$var wire 64 d w1 [63:0] $end
$var wire 64 e w2 [63:0] $end
$var wire 64 f w3 [63:0] $end
$var wire 64 g w4 [63:0] $end
$var wire 64 h w5 [63:0] $end
$var wire 64 i w6 [63:0] $end
$var integer 32 G! i $end
$upscope $end
$scope module MEM_WB_reg $end
$var wire 1 # clk $end
$var wire 1 $ reset $end
$var wire 1 T EX_MEM_RegWrite $end
$var wire 1 V EX_MEM_MemToReg $end
$var wire 5 Z EX_MEM_RD [4:0] $end
$var wire 64 ' ReadData [63:0] $end
$var wire 64 \ EX_MEM_ALU_Result [63:0] $end
$var reg 1 H! MEM_WB_RegWrite $end
$var reg 1 I! MEM_WB_MemToReg $end
$var reg 5 J! MEM_WB_RD [4:0] $end
$var reg 64 K! MEM_WB_ReadData [63:0] $end
$var reg 64 L! MEM_WB_ALU_Result [63:0] $end
$upscope $end
$scope module WB_mux $end
$var wire 64 b a [63:0] $end
$var wire 64 a b [63:0] $end
$var wire 1 _ sel $end
$var wire 64 * data_out [63:0] $end
$upscope $end
$upscope $end
$upscope $end
$enddefinitions $end
#0
$dumpvars
0!
0!!
1"
b0 "!
0#
0#!
1$
0$!
bx %
0%!
bx &
b0 &!
bx '
b0 '!
b0 (
b100000 (!
b0 )
1)!
b0 *
0*!
b0 +
0+!
b0 ,
0,!
b0 -
0-!
b0 .
0.!
bx /
0/!
b0 0
b0 0!
bx 1
b0 1!
b0 2
b0 2!
b0 3
b0 3!
b0 4
b0 4!
b0 5
b0 5!
b0 6
b0 6!
b0 7
b0 7!
b10 8
b0 8!
b0 9
b0 9!
bz0 :
b10 :!
0;
b0 ;!
0<
x<!
0=
x=!
0>
x>!
0?
x?!
1@
x@!
0A
xA!
1B
bx B!
b0 C
bx C!
b0 D
bx D!
0E
bx E!
0F
bx F!
0G
b1000000000 G!
0H
0H!
0I
0I!
0J
b0 J!
b0 K
b0 K!
b0 L
b0 L!
b0 M
b0 N
b0 O
b0 P
b0 Q
b0 R
b0 S
xT
xU
xV
xW
xX
xY
bx Z
bx [
bx \
bx ]
0^
0_
b0 `
b0 a
b0 b
b111 c
b110 d
b101 e
b100 f
b11 g
b10 h
b1 i
bz j
bz k
bz l
zm
b100 n
bx o
xp
bx q
bx r
b0 s
b0 t
b0 u
b0 v
b0 w
b0 x
b0 y
b0 z
b0 {
b0 |
0}
0~
$end
#5000
1!
1#
b100 %
b0 &
b100 /
b101000000000000010010011 1
0<!
0=!
0>!
0?!
0@!
0A!
b0 B!
b0 C!
b0 D!
b0 E!
bx F!
0T
0U
0V
0W
0X
0Y
b0 Z
b0 [
b0 \
b0 ]
b100 o
0p
b0 q
b101000000000000010010011 r
#10000
0!
0#
#15000
1!
1#
#20000
0!
0"
0#
0$
#25000
1!
0!!
b0 "!
1#
0#!
1$!
b1000 %
1%!
b100 &
b1010 +
b0 .
b1000 /
z/!
bz0 0!
b1010000000000000100010011 1
b10011 2
b1010 6
b1 7
1;
1?
1A!
b101000000000000010010011 D
zJ
bz0 K
bx K!
1Y
bx a
b1000 o
0p
b100 q
b1010000000000000100010011 r
b101000000000000010010011 s
b10011 u
b1 v
b1010 y
b1010 {
0}
0~
#30000
0!
0#
#35000
1!
1#
b1100 %
b1000 &
1*!
b10100 +
bx ,
b10100 -
b0x0x0 .
b1100 /
b10100 0
b10100000000000110010011 1
b1010 4!
b10100 6
b10 7
b1010 7!
b1 8!
b10100 9!
bx ;!
x@
b100 C
b1010000000000000100010011 D
1E
b1010 O
b1010 R
b1 S
b1100 o
b1000 q
b10100000000000110010011 r
b1010000000000000100010011 s
b100 t
b10 v
b10100 y
b10100 {
#40000
0!
0#
#45000
1!
1#
b10000 %
b1100 &
b101 +
b101000 -
b0x0x00 .
b10000 /
b101100 0
b111100000000001000010011 1
b100 1!
b10100 4!
b101 6
b11 7
b10100 7!
b10 8!
b101100 9!
1<!
b1 B!
b1000 C
b10100 C!
b10100000000000110010011 D
bx D!
bx F!
b100 L
b10100 O
b10100 R
b10 S
1T
b1 Z
b10100 [
bx \
b10000 o
b1100 q
b111100000000001000010011 r
b10100000000000110010011 s
b1000 t
b11 v
b101 y
b101 {
#50000
0!
0#
#55000
1!
1#
b10100 %
b10000 &
bx *
b1111 +
b1010 -
b0x0x .
b10100 /
b10010 0
bx 1
b1000 1!
b101 4!
b1111 6
b100 7
b101 7!
b11 8!
b10010 9!
b10 B!
b1100 C
b101100 C!
b111100000000001000010011 D
1H!
b1 J!
b1000 L
bx L!
b101 O
b101 R
b11 S
b10 Z
b101100 [
1^
b1 `
bx b
b10100 o
b10000 q
bx r
b111100000000001000010011 s
b1100 t
b100 v
b1111 y
b1111 {
#60000
0!
0#
#65000
1!
0!!
b0 "!
1#
0#!
0$!
b11000 %
0%!
b10100 &
bx &!
bx '!
bx (
bx )
b11110 -
b0xxxx .
b11000 /
b101010 0
b1100 1!
bx 2
bx 3
bx 4
b1111 4!
bx 5
bx 6
bx 7
b1111 7!
b100 8!
bx 9
b101010 9!
0;
0?
b11 B!
b10000 C
b10010 C!
bx D
b10 J!
b1100 L
b1111 O
b1111 R
b100 S
b11 Z
b10010 [
b10 `
b11000 o
b10100 q
bx s
b10000 t
bx u
bx v
bx w
bx x
bx y
bx z
bx |
0}
0~
#70000
0!
0#
#75000
1!
1#
b11100 %
b11000 &
0*!
bx .
b11100 /
b101110 0
b10000 1!
bx 2!
bx 3!
bx 5!
bx 6!
bx 7!
bx 8!
b101110 9!
b100 B!
b10100 C
b101010 C!
0E
b11 J!
b10000 L
bx M
bx N
bx P
bx Q
bx R
bx S
b100 Z
b101010 [
b11 `
b11100 o
b11000 q
b10100 t
#80000
0!
0#
#85000
1!
1#
b100000 %
b11100 &
b100000 /
b110010 0
b10100 1!
b110010 9!
0<!
bx B!
b11000 C
b101110 C!
bx E!
b100 J!
b10100 L
0T
bx Z
b101110 [
bx ]
b100 `
b100000 o
b11100 q
b11000 t
#90000
0!
0#
#95000
1!
1#
b100100 %
b100000 &
b100100 /
b110110 0
b11000 1!
b110110 9!
b11100 C
b110010 C!
0H!
bx J!
b11000 L
b110010 [
0^
bx `
b100100 o
b100000 q
b11100 t
#100000
0!
0#
#105000
1!
1#
b101000 %
b100100 &
b101000 /
b111010 0
b11100 1!
b111010 9!
b100000 C
b110110 C!
b11100 L
b110110 [
b101000 o
b100100 q
b100000 t
#110000
0!
0#
#115000
1!
1#
b101100 %
b101000 &
b101100 /
b111110 0
b100000 1!
b111110 9!
b100100 C
b111010 C!
b100000 L
b111010 [
b101100 o
b101000 q
b100100 t
#120000
0!
0#
#125000
1!
1#
b110000 %
b101100 &
b110000 /
b1000010 0
b100100 1!
b1000010 9!
b101000 C
b111110 C!
b100100 L
b111110 [
b110000 o
b101100 q
b101000 t
#130000
0!
0#
#135000
1!
1#
b110100 %
b110000 &
b110100 /
b1000110 0
b101000 1!
b1000110 9!
b101100 C
b1000010 C!
b101000 L
b1000010 [
b110100 o
b110000 q
b101100 t
#140000
0!
0#
#145000
1!
1#
b111000 %
b110100 &
b111000 /
b1001010 0
b101100 1!
b1001010 9!
b110000 C
b1000110 C!
b101100 L
b1000110 [
b111000 o
b110100 q
b110000 t
#150000
0!
0#
#155000
1!
1#
b111100 %
b111000 &
b111100 /
b1001110 0
b110000 1!
b1001110 9!
b110100 C
b1001010 C!
b110000 L
b1001010 [
b111100 o
b111000 q
b110100 t
#160000
0!
0#
#165000
1!
1#
b1000000 %
b111100 &
b1000000 /
b1010010 0
b110100 1!
b1010010 9!
b111000 C
b1001110 C!
b110100 L
b1001110 [
b1000000 o
b111100 q
b111000 t
#170000
0!
0#
#175000
1!
1#
b1000100 %
b1000000 &
b1000100 /
b1010110 0
b111000 1!
b1010110 9!
b111100 C
b1010010 C!
b111000 L
b1010010 [
b1000100 o
b1000000 q
b111100 t
#180000
0!
0#
#185000
1!
1#
b1001000 %
b1000100 &
b1001000 /
b1011010 0
b111100 1!
b1011010 9!
b1000000 C
b1010110 C!
b111100 L
b1010110 [
b1001000 o
b1000100 q
b1000000 t
#190000
0!
0#
#195000
1!
1#
b1001100 %
b1001000 &
b1001100 /
b1011110 0
b1000000 1!
b1011110 9!
b1000100 C
b1011010 C!
b1000000 L
b1011010 [
b1001100 o
b1001000 q
b1000100 t
#200000
0!
0#
#205000
1!
1#
b1010000 %
b1001100 &
b1010000 /
b1100010 0
b1000100 1!
b1100010 9!
b1001000 C
b1011110 C!
b1000100 L
b1011110 [
b1010000 o
b1001100 q
b1001000 t
#210000
0!
0#
#215000
1!
1#
b1010100 %
b1010000 &
b1010100 /
b1100110 0
b1001000 1!
b1100110 9!
b1001100 C
b1100010 C!
b1001000 L
b1100010 [
b1010100 o
b1010000 q
b1001100 t
#220000
0!
0#
#225000
1!
1#
b1011000 %
b1010100 &
b1011000 /
b1101010 0
b1001100 1!
b1101010 9!
b1010000 C
b1100110 C!
b1001100 L
b1100110 [
b1011000 o
b1010100 q
b1010000 t
#230000
0!
0#
#235000
1!
1#
b1011100 %
b1011000 &
b1011100 /
b1101110 0
b1010000 1!
b1101110 9!
b1010100 C
b1101010 C!
b1010000 L
b1101010 [
b1011100 o
b1011000 q
b1010100 t
#240000
0!
0#
#245000
1!
1#
b1100000 %
b1011100 &
b1100000 /
b1110010 0
b1010100 1!
b1110010 9!
b1011000 C
b1101110 C!
b1010100 L
b1101110 [
b1100000 o
b1011100 q
b1011000 t
#250000
0!
0#
#255000
1!
1#
b1100100 %
b1100000 &
b1100100 /
b1110110 0
b1011000 1!
b1110110 9!
b1011100 C
b1110010 C!
b1011000 L
b1110010 [
b1100100 o
b1100000 q
b1011100 t
#260000
0!
0#
#265000
1!
1#
b1101000 %
b1100100 &
b1101000 /
b1111010 0
b1011100 1!
b1111010 9!
b1100000 C
b1110110 C!
b1011100 L
b1110110 [
b1101000 o
b1100100 q
b1100000 t
#270000
0!
0#
#275000
1!
1#
b1101100 %
b1101000 &
b1101100 /
b1111110 0
b1100000 1!
b1111110 9!
b1100100 C
b1111010 C!
b1100000 L
b1111010 [
b1101100 o
b1101000 q
b1100100 t
#280000
0!
0#
#285000
1!
1#
b1110000 %
b1101100 &
b1110000 /
b10000010 0
b1100100 1!
b10000010 9!
b1101000 C
b1111110 C!
b1100100 L
b1111110 [
b1110000 o
b1101100 q
b1101000 t
#290000
0!
0#
#295000
1!
1#
b1110100 %
b1110000 &
b1110100 /
b10000110 0
b1101000 1!
b10000110 9!
b1101100 C
b10000010 C!
b1101000 L
b10000010 [
b1110100 o
b1110000 q
b1101100 t
#300000
0!
0#
#305000
1!
1#
b1111000 %
b1110100 &
b1111000 /
b10001010 0
b1101100 1!
b10001010 9!
b1110000 C
b10000110 C!
b1101100 L
b10000110 [
b1111000 o
b1110100 q
b1110000 t
#310000
0!
0#
#315000
1!
1#
b1111100 %
b1111000 &
b1111100 /
b10001110 0
b1110000 1!
b10001110 9!
b1110100 C
b10001010 C!
b1110000 L
b10001010 [
b1111100 o
b1111000 q
b1110100 t
#320000
0!
0#
#325000
1!
1#
b10000000 %
b1111100 &
b10000000 /
b10010010 0
b1110100 1!
b10010010 9!
b1111000 C
b10001110 C!
b1110100 L
b10001110 [
b10000000 o
b1111100 q
b1111000 t
#330000
0!
0#
#335000
1!
1#
b10000100 %
b10000000 &
b10000100 /
b10010110 0
b1111000 1!
b10010110 9!
b1111100 C
b10010010 C!
b1111000 L
b10010010 [
b10000100 o
b10000000 q
b1111100 t
#340000
0!
0#
#345000
1!
1#
b10001000 %
b10000100 &
b10001000 /
b10011010 0
b1111100 1!
b10011010 9!
b10000000 C
b10010110 C!
b1111100 L
b10010110 [
b10001000 o
b10000100 q
b10000000 t
#350000
0!
0#
#355000
1!
1#
b10001100 %
b10001000 &
b10001100 /
b10011110 0
b10000000 1!
b10011110 9!
b10000100 C
b10011010 C!
b10000000 L
b10011010 [
b10001100 o
b10001000 q
b10000100 t
#360000
0!
0#
#365000
1!
1#
b10010000 %
b10001100 &
b10010000 /
b10100010 0
b10000100 1!
b10100010 9!
b10001000 C
b10011110 C!
b10000100 L
b10011110 [
b10010000 o
b10001100 q
b10001000 t
#370000
0!
0#
#375000
1!
1#
b10010100 %
b10010000 &
b10010100 /
b10100110 0
b10001000 1!
b10100110 9!
b10001100 C
b10100010 C!
b10001000 L
b10100010 [
b10010100 o
b10010000 q
b10001100 t
#380000
0!
0#
#385000
1!
1#
b10011000 %
b10010100 &
b10011000 /
b10101010 0
b10001100 1!
b10101010 9!
b10010000 C
b10100110 C!
b10001100 L
b10100110 [
b10011000 o
b10010100 q
b10010000 t
#390000
0!
0#
#395000
1!
1#
b10011100 %
b10011000 &
b10011100 /
b10101110 0
b10010000 1!
b10101110 9!
b10010100 C
b10101010 C!
b10010000 L
b10101010 [
b10011100 o
b10011000 q
b10010100 t
#400000
0!
0#
#405000
1!
1#
b10100000 %
b10011100 &
b10100000 /
b10110010 0
b10010100 1!
b10110010 9!
b10011000 C
b10101110 C!
b10010100 L
b10101110 [
b10100000 o
b10011100 q
b10011000 t
#410000
0!
0#
#415000
1!
1#
b10100100 %
b10100000 &
b10100100 /
b10110110 0
b10011000 1!
b10110110 9!
b10011100 C
b10110010 C!
b10011000 L
b10110010 [
b10100100 o
b10100000 q
b10011100 t
#420000
0!
0#
#425000
1!
1#
b10101000 %
b10100100 &
b10101000 /
b10111010 0
b10011100 1!
b10111010 9!
b10100000 C
b10110110 C!
b10011100 L
b10110110 [
b10101000 o
b10100100 q
b10100000 t
#430000
0!
0#
#435000
1!
1#
b10101100 %
b10101000 &
b10101100 /
b10111110 0
b10100000 1!
b10111110 9!
b10100100 C
b10111010 C!
b10100000 L
b10111010 [
b10101100 o
b10101000 q
b10100100 t
#440000
0!
0#
#445000
1!
1#
b10110000 %
b10101100 &
b10110000 /
b11000010 0
b10100100 1!
b11000010 9!
b10101000 C
b10111110 C!
b10100100 L
b10111110 [
b10110000 o
b10101100 q
b10101000 t
#450000
0!
0#
#455000
1!
1#
b10110100 %
b10110000 &
b10110100 /
b11000110 0
b10101000 1!
b11000110 9!
b10101100 C
b11000010 C!
b10101000 L
b11000010 [
b10110100 o
b10110000 q
b10101100 t
#460000
0!
0#
#465000
1!
1#
b10111000 %
b10110100 &
b10111000 /
b11001010 0
b10101100 1!
b11001010 9!
b10110000 C
b11000110 C!
b10101100 L
b11000110 [
b10111000 o
b10110100 q
b10110000 t
#470000
0!
0#
#475000
1!
1#
b10111100 %
b10111000 &
b10111100 /
b11001110 0
b10110000 1!
b11001110 9!
b10110100 C
b11001010 C!
b10110000 L
b11001010 [
b10111100 o
b10111000 q
b10110100 t
#480000
0!
0#
#485000
1!
1#
b11000000 %
b10111100 &
b11000000 /
b11010010 0
b10110100 1!
b11010010 9!
b10111000 C
b11001110 C!
b10110100 L
b11001110 [
b11000000 o
b10111100 q
b10111000 t
#490000
0!
0#
#495000
1!
1#
b11000100 %
b11000000 &
b11000100 /
b11010110 0
b10111000 1!
b11010110 9!
b10111100 C
b11010010 C!
b10111000 L
b11010010 [
b11000100 o
b11000000 q
b10111100 t
#500000
0!
0#
#505000
1!
1#
b11001000 %
b11000100 &
b11001000 /
b11011010 0
b10111100 1!
b11011010 9!
b11000000 C
b11010110 C!
b10111100 L
b11010110 [
b11001000 o
b11000100 q
b11000000 t
#510000
0!
0#
#515000
1!
1#
b11001100 %
b11001000 &
b11001100 /
b11011110 0
b11000000 1!
b11011110 9!
b11000100 C
b11011010 C!
b11000000 L
b11011010 [
b11001100 o
b11001000 q
b11000100 t
#520000
0!
0#
#525000
1!
1#
b11010000 %
b11001100 &
b11010000 /
b11100010 0
b11000100 1!
b11100010 9!
b11001000 C
b11011110 C!
b11000100 L
b11011110 [
b11010000 o
b11001100 q
b11001000 t
#530000
0!
0#
#535000
1!
1#
b11010100 %
b11010000 &
b11010100 /
b11100110 0
b11001000 1!
b11100110 9!
b11001100 C
b11100010 C!
b11001000 L
b11100010 [
b11010100 o
b11010000 q
b11001100 t
#540000
0!
0#
#545000
1!
1#
b11011000 %
b11010100 &
b11011000 /
b11101010 0
b11001100 1!
b11101010 9!
b11010000 C
b11100110 C!
b11001100 L
b11100110 [
b11011000 o
b11010100 q
b11010000 t
#550000
0!
0#
#555000
1!
1#
b11011100 %
b11011000 &
b11011100 /
b11101110 0
b11010000 1!
b11101110 9!
b11010100 C
b11101010 C!
b11010000 L
b11101010 [
b11011100 o
b11011000 q
b11010100 t
#560000
0!
0#
#565000
1!
1#
b11100000 %
b11011100 &
b11100000 /
b11110010 0
b11010100 1!
b11110010 9!
b11011000 C
b11101110 C!
b11010100 L
b11101110 [
b11100000 o
b11011100 q
b11011000 t
#570000
0!
0#
#575000
1!
1#
b11100100 %
b11100000 &
b11100100 /
b11110110 0
b11011000 1!
b11110110 9!
b11011100 C
b11110010 C!
b11011000 L
b11110010 [
b11100100 o
b11100000 q
b11011100 t
#580000
0!
0#
#585000
1!
1#
b11101000 %
b11100100 &
b11101000 /
b11111010 0
b11011100 1!
b11111010 9!
b11100000 C
b11110110 C!
b11011100 L
b11110110 [
b11101000 o
b11100100 q
b11100000 t
#590000
0!
0#
#595000
1!
1#
b11101100 %
b11101000 &
b11101100 /
b11111110 0
b11100000 1!
b11111110 9!
b11100100 C
b11111010 C!
b11100000 L
b11111010 [
b11101100 o
b11101000 q
b11100100 t
#600000
0!
0#
#605000
1!
1#
b11110000 %
b11101100 &
b11110000 /
b100000010 0
b11100100 1!
b100000010 9!
b11101000 C
b11111110 C!
b11100100 L
b11111110 [
b11110000 o
b11101100 q
b11101000 t
#610000
0!
0#
#615000
1!
1#
b11110100 %
b11110000 &
b11110100 /
b100000110 0
b11101000 1!
b100000110 9!
b11101100 C
b100000010 C!
b11101000 L
b100000010 [
b11110100 o
b11110000 q
b11101100 t
#620000
0!
0#
#625000
1!
1#
b11111000 %
b11110100 &
b11111000 /
b100001010 0
b11101100 1!
b100001010 9!
b11110000 C
b100000110 C!
b11101100 L
b100000110 [
b11111000 o
b11110100 q
b11110000 t
#630000
0!
0#
#635000
1!
1#
b11111100 %
b11111000 &
b11111100 /
b100001110 0
b11110000 1!
b100001110 9!
b11110100 C
b100001010 C!
b11110000 L
b100001010 [
b11111100 o
b11111000 q
b11110100 t
#640000
0!
0#
#645000
1!
1#
b100000000 %
b11111100 &
b100000000 /
b100010010 0
b11110100 1!
b100010010 9!
b11111000 C
b100001110 C!
b11110100 L
b100001110 [
b100000000 o
b11111100 q
b11111000 t
#650000
0!
0#
#655000
1!
1#
b100000100 %
b100000000 &
b100000100 /
b100010110 0
b11111000 1!
b100010110 9!
b11111100 C
b100010010 C!
b11111000 L
b100010010 [
b100000100 o
b100000000 q
b11111100 t
#660000
0!
0#
#665000
1!
1#
b100001000 %
b100000100 &
b100001000 /
b100011010 0
b11111100 1!
b100011010 9!
b100000000 C
b100010110 C!
b11111100 L
b100010110 [
b100001000 o
b100000100 q
b100000000 t
#670000
0!
0#
#675000
1!
1#
b100001100 %
b100001000 &
b100001100 /
b100011110 0
b100000000 1!
b100011110 9!
b100000100 C
b100011010 C!
b100000000 L
b100011010 [
b100001100 o
b100001000 q
b100000100 t
#680000
0!
0#
#685000
1!
1#
b100010000 %
b100001100 &
b100010000 /
b100100010 0
b100000100 1!
b100100010 9!
b100001000 C
b100011110 C!
b100000100 L
b100011110 [
b100010000 o
b100001100 q
b100001000 t
#690000
0!
0#
#695000
1!
1#
b100010100 %
b100010000 &
b100010100 /
b100100110 0
b100001000 1!
b100100110 9!
b100001100 C
b100100010 C!
b100001000 L
b100100010 [
b100010100 o
b100010000 q
b100001100 t
#700000
0!
0#
#705000
1!
1#
b100011000 %
b100010100 &
b100011000 /
b100101010 0
b100001100 1!
b100101010 9!
b100010000 C
b100100110 C!
b100001100 L
b100100110 [
b100011000 o
b100010100 q
b100010000 t
#710000
0!
0#
#715000
1!
1#
b100011100 %
b100011000 &
b100011100 /
b100101110 0
b100010000 1!
b100101110 9!
b100010100 C
b100101010 C!
b100010000 L
b100101010 [
b100011100 o
b100011000 q
b100010100 t
#720000
0!
0#
#725000
1!
1#
b100100000 %
b100011100 &
b100100000 /
b100110010 0
b100010100 1!
b100110010 9!
b100011000 C
b100101110 C!
b100010100 L
b100101110 [
b100100000 o
b100011100 q
b100011000 t
#730000
0!
0#
#735000
1!
1#
b100100100 %
b100100000 &
b100100100 /
b100110110 0
b100011000 1!
b100110110 9!
b100011100 C
b100110010 C!
b100011000 L
b100110010 [
b100100100 o
b100100000 q
b100011100 t
#740000
0!
0#
